\relax 
\providecommand*\new@tpo@label[2]{}
\bbl@cs{beforestart}
\catcode `"\active 
\babel@aux{ngerman}{}
\@writefile{tdo}{\contentsline {todo}{\color@fb@x {}{black}{}{orange}{\leavevmode {\color  {orange}o}}\ Alle Songs mit dem leadsheets-Paket setzen!}{7}\protected@file@percent }
\pgfsyspdfmark {pgfid1}{20495094}{39922124}
\@writefile{toc}{\contentsline {chapter}{\numberline {1}Aus der IGMAM-Liedersammlung}{9}\protected@file@percent }
\@writefile{lof}{\addvspace {10\p@ }}
\@writefile{lot}{\addvspace {10\p@ }}
\@writefile{tdo}{\contentsline {todo}{\color@fb@x {}{black}{}{orange}{\leavevmode {\color  {orange}o}}\ Copyrights abklären! Autoren???}{9}\protected@file@percent }
\pgfsyspdfmark {pgfid2}{20495094}{39922124}
\@writefile{toc}{\contentsline {chapter}{\numberline {2}Ergänzungen}{35}\protected@file@percent }
\@writefile{lof}{\addvspace {10\p@ }}
\@writefile{lot}{\addvspace {10\p@ }}
\@writefile{tdo}{\contentsline {todo}{\color@fb@x {}{black}{}{orange}{\leavevmode {\color  {orange}o}}\ Lieder aus der Van-Langen-Sammlung!}{48}\protected@file@percent }
\pgfsyspdfmark {pgfid3}{20495094}{50070065}
\@writefile{tdo}{\contentsline {todo}{\color@fb@x {}{black}{}{orange}{\leavevmode {\color  {orange}o}}\ Tanzwut, InEx ua?}{49}\protected@file@percent }
\pgfsyspdfmark {pgfid4}{20495094}{48283436}
\@writefile{tdo}{\contentsline {todo}{\color@fb@x {}{black}{}{orange}{\leavevmode {\color  {orange}o}}\ Lieder aus \enquote {Das Ding 1--4}???}{49}\protected@file@percent }
\pgfsyspdfmark {pgfid5}{20495094}{46474197}
\@writefile{tdo}{\contentsline {todo}{\color@fb@x {}{black}{}{orange}{\leavevmode {\color  {orange}o}}\ Lieder aus der TUBAF-Sammlung?}{49}\protected@file@percent }
\pgfsyspdfmark {pgfid6}{20495094}{44612463}
\@writefile{tdo}{\contentsline {todo}{\color@fb@x {}{black}{}{orange}{\leavevmode {\color  {orange}o}}\ Lieder aus dem Anton-Günter-Buch?}{49}\protected@file@percent }
\pgfsyspdfmark {pgfid7}{20495094}{42861616}
\global\@namedef{scr@dte@chapter@lastmaxnumwidth}{10.96793pt}
